#cell dimensions from CRA-2014 Appendix PA, Figure PA-12.
#x is x, y(pflotran) is z(bragflo), z(pflotran) is y(bragflo)
#this list is x,y,z for pflotran
#Emily 1.3.2017
#column 1 (xy) is west.
#row 1(z) is bottom.
#width (m)
XY
12203.83 66177.07
3126.85 35515.71
2156.45 24949.10
1487.21 17661.78
1025.66 12636.05
707.35  9170.02
526.68  6701.95
363.23  4922.12
250.50  3694.66
172.76  2848.13
119.15  2264.31
82.17   1861.68
56.67   1584.01
39.08   1392.51
26.95   1260.44
18.59   1169.36
12.82   1106.54
8.84    1063.22
6.10    1033.34
4.20    1012.74
2.90    998.53
2.00    998.73
43.80   126.20
10.00   28.80
2.00    4.80
0.27575 0.27575
2.00    4.80
10.00   28.80
43.80   126.20
15.24   20.0
15.24   20.0
140.20  156.904
140.20  156.904
15.24   40.00
15.24   40.00
140.20  196.13
140.20  196.13
30.48   40.00
30.48   40.00
98.70   32.18
98.70   32.18
98.70   32.18
10.00   9.50
361.65  51.67
361.65  51.68
2.00    2839.58
2.90    2849.38
4.20    2863.59
6.10    2884.19
8.84    2914.07
12.82   2957.39
18.59   3020.20
26.95   3111.29
39.08   3243.36
56.67   3434.86
82.17   3712.53
119.15  4115.16
172.76  4698.98
250.50  5545.50
363.23  6772.97
526.68  8552.80
707.35  11020.87
1025.66 14486.90
1487.21 19512.63
2156.45 26799.95
3126.85 37366.56
4533.94 52688.14
7669.89 77095.80
Z
125.83
52.27
66.72
66.72
65.72
1.00
0.85
0.69
0.69
1.32
1.32
1.32
2.62
0.27
4.53
4.53
0.18
54.73
54.73
54.73
54.73
54.73
54.73
54.73
36.00
7.70
24.80
8.50
17.30
106.00
43.30
15.66
0.10
