  GRID BLOCK BRINE PRESSURE INITIAL CONDITIONS
   22*+1.599190E+07   23*+1.331219E+07   23*+1.599190E+07
   68*+1.492134E+07
    1*+1.785614E+07    1*+1.624692E+07    1*+1.569261E+07    1*+1.531038E+07
    1*+1.504681E+07    1*+1.486504E+07    1*+1.473562E+07    1*+1.464229E+07
    1*+1.457793E+07    1*+1.453354E+07    1*+1.450293E+07    1*+1.448181E+07
    1*+1.446725E+07    1*+1.445721E+07    1*+1.445029E+07    1*+1.444551E+07
    1*+1.444222E+07    1*+1.443995E+07    1*+1.443838E+07    1*+1.443730E+07
    1*+1.443656E+07    1*+1.443604E+07    1*+1.443124E+07    1*+1.442560E+07
    1*+1.442434E+07    1*+1.442410E+07    1*+1.442386E+07    1*+1.442260E+07
    1*+1.441696E+07    1*+1.441077E+07    1*+1.440757E+07    1*+1.439127E+07
    1*+1.436187E+07    1*+1.434557E+07    1*+1.434237E+07    1*+1.432607E+07
    1*+1.429667E+07    1*+1.427877E+07    1*+1.427238E+07    1*+1.425884E+07
    1*+1.423814E+07    1*+1.421744E+07    1*+1.420604E+07    1*+1.416707E+07
    1*+1.409123E+07    1*+1.405309E+07    1*+1.405258E+07    1*+1.405184E+07
    1*+1.405076E+07    1*+1.404919E+07    1*+1.404692E+07    1*+1.404363E+07
    1*+1.403885E+07    1*+1.403193E+07    1*+1.402189E+07    1*+1.400733E+07
    1*+1.398622E+07    1*+1.395561E+07    1*+1.391124E+07    1*+1.384689E+07
    1*+1.375358E+07    1*+1.362421E+07    1*+1.344252E+07    1*+1.317910E+07
    1*+1.279718E+07    1*+1.224348E+07    1*+1.144078E+07    1*+1.016252E+07
    1*+1.705371E+07    1*+1.544489E+07    1*+1.489072E+07    1*+1.450859E+07
    1*+1.424508E+07    1*+1.406336E+07    1*+1.393396E+07    1*+1.384066E+07
    1*+1.377631E+07    1*+1.373194E+07    1*+1.370133E+07    1*+1.368022E+07
    1*+1.366567E+07    1*+1.365563E+07    1*+1.364871E+07    1*+1.364393E+07
    1*+1.364064E+07    1*+1.363837E+07    1*+1.363680E+07    1*+1.363572E+07
    1*+1.363498E+07    1*+1.363446E+07    1*+1.362966E+07    1*+1.362402E+07
    1*+1.362276E+07    1*+1.362253E+07    1*+1.362229E+07    1*+1.362103E+07
    1*+1.361539E+07    1*+1.360920E+07    1*+1.360600E+07    1*+1.358971E+07
    1*+1.356031E+07    1*+1.354401E+07    1*+1.354082E+07    1*+1.352452E+07
    1*+1.349513E+07    1*+1.347723E+07    1*+1.347084E+07    1*+1.345730E+07
    1*+1.343661E+07    1*+1.341591E+07    1*+1.340452E+07    1*+1.336556E+07
    1*+1.328973E+07    1*+1.325161E+07    1*+1.325110E+07    1*+1.325035E+07
    1*+1.324927E+07    1*+1.324771E+07    1*+1.324544E+07    1*+1.324214E+07
    1*+1.323737E+07    1*+1.323045E+07    1*+1.322041E+07    1*+1.320586E+07
    1*+1.318475E+07    1*+1.315415E+07    1*+1.310979E+07    1*+1.304545E+07
    1*+1.295217E+07    1*+1.282283E+07    1*+1.264119E+07    1*+1.237784E+07
    1*+1.199601E+07    1*+1.144244E+07    1*+1.063995E+07    1*+9.362003E+06
    1*+1.625749E+07    1*+1.464907E+07    1*+1.409503E+07    1*+1.371300E+07
    1*+1.344955E+07    1*+1.326787E+07    1*+1.313852E+07    1*+1.304523E+07
    1*+1.298090E+07    1*+1.293654E+07    1*+1.290594E+07    1*+1.288484E+07
    1*+1.287028E+07    1*+1.286025E+07    1*+1.285333E+07    1*+1.284855E+07
    1*+1.284526E+07    1*+1.284299E+07    1*+1.284143E+07    1*+1.284035E+07
    1*+1.283960E+07    1*+1.283909E+07    1*+1.283429E+07    1*+1.282865E+07
    1*+1.282739E+07    1*+1.282715E+07    1*+1.282691E+07    1*+1.282566E+07
    1*+1.282002E+07    1*+1.281383E+07    1*+1.281063E+07    1*+1.279434E+07
    1*+1.276495E+07    1*+1.274866E+07    1*+1.274547E+07    1*+1.272917E+07
    1*+1.269979E+07    1*+1.268190E+07    1*+1.267551E+07    1*+1.266197E+07
    1*+1.264128E+07    1*+1.262059E+07    1*+1.260920E+07    1*+1.257025E+07
    1*+1.249444E+07    1*+1.245633E+07    1*+1.245582E+07    1*+1.245507E+07
    1*+1.245399E+07    1*+1.245243E+07    1*+1.245016E+07    1*+1.244687E+07
    1*+1.244209E+07    1*+1.243517E+07    1*+1.242514E+07    1*+1.241059E+07
    1*+1.238949E+07    1*+1.235890E+07    1*+1.231454E+07    1*+1.225022E+07
    1*+1.215697E+07    1*+1.202765E+07    1*+1.184606E+07    1*+1.158277E+07
    1*+1.120104E+07    1*+1.064761E+07    1*+9.845311E+06    1*+8.567679E+06
    1*+1.585642E+07    1*+1.424821E+07    1*+1.369424E+07    1*+1.331225E+07
    1*+1.304883E+07    1*+1.286718E+07    1*+1.273784E+07    1*+1.264457E+07
    1*+1.258024E+07    1*+1.253588E+07    1*+1.250529E+07    1*+1.248419E+07
    1*+1.246964E+07    1*+1.245961E+07    1*+1.245269E+07    1*+1.244791E+07
    1*+1.244462E+07    1*+1.244235E+07    1*+1.244079E+07    1*+1.243971E+07
    1*+1.243896E+07    1*+1.243845E+07    1*+1.243365E+07    1*+1.242801E+07
    1*+1.242675E+07    1*+1.242651E+07    1*+1.242628E+07    1*+1.242502E+07
    1*+1.241938E+07    1*+1.241319E+07    1*+1.241000E+07    1*+1.239371E+07
    1*+1.236432E+07    1*+1.234803E+07    1*+1.234484E+07    1*+1.232855E+07
    1*+1.229916E+07    1*+1.228128E+07    1*+1.227489E+07    1*+1.226135E+07
    1*+1.224066E+07    1*+1.221998E+07    1*+1.220859E+07    1*+1.216964E+07
    1*+1.209384E+07    1*+1.205574E+07    1*+1.205522E+07    1*+1.205448E+07
    1*+1.205340E+07    1*+1.205183E+07    1*+1.204956E+07    1*+1.204627E+07
    1*+1.204150E+07    1*+1.203458E+07    1*+1.202455E+07    1*+1.201000E+07
    1*+1.198890E+07    1*+1.195832E+07    1*+1.191397E+07    1*+1.184966E+07
    1*+1.175641E+07    1*+1.162711E+07    1*+1.144554E+07    1*+1.118229E+07
    1*+1.080060E+07    1*+1.024724E+07    1*+9.445043E+06    1*+8.167569E+06
    1*+1.584530E+07    1*+1.423709E+07    1*+1.368313E+07    1*+1.330114E+07
    1*+1.303772E+07    1*+1.285607E+07    1*+1.272673E+07    1*+1.263346E+07
    1*+1.256914E+07    1*+1.252478E+07    1*+1.249418E+07    1*+1.247308E+07
    1*+1.245853E+07    1*+1.244850E+07    1*+1.244158E+07    1*+1.243681E+07
    1*+1.243351E+07    1*+1.243124E+07    1*+1.242968E+07    1*+1.242860E+07
    1*+1.242785E+07    1*+1.242734E+07    1*+1.242254E+07    1*+1.241690E+07
    1*+1.241564E+07    1*+1.241541E+07    1*+1.241517E+07    1*+1.241391E+07
    1*+1.240827E+07    1*+1.240208E+07    1*+1.239889E+07    1*+1.238260E+07
    1*+1.235321E+07    1*+1.233692E+07    1*+1.233373E+07    1*+1.231744E+07
    1*+1.228806E+07    1*+1.227017E+07    1*+1.226378E+07    1*+1.225024E+07
    1*+1.222956E+07    1*+1.220887E+07    1*+1.219748E+07    1*+1.215853E+07
    1*+1.208274E+07    1*+1.204463E+07    1*+1.204412E+07    1*+1.204337E+07
    1*+1.204229E+07    1*+1.204073E+07    1*+1.203846E+07    1*+1.203517E+07
    1*+1.203040E+07    1*+1.202348E+07    1*+1.201344E+07    1*+1.199889E+07
    1*+1.197780E+07    1*+1.194721E+07    1*+1.190286E+07    1*+1.183855E+07
    1*+1.174531E+07    1*+1.161601E+07    1*+1.143444E+07    1*+1.117118E+07
    1*+1.078950E+07    1*+1.023614E+07    1*+9.433946E+06    1*+8.156476E+06
    1*+1.583605E+07    1*+1.422784E+07    1*+1.367388E+07    1*+1.329189E+07
    1*+1.302848E+07    1*+1.284682E+07    1*+1.271748E+07    1*+1.262421E+07
    1*+1.255989E+07    1*+1.251553E+07    1*+1.248494E+07    1*+1.246384E+07
    1*+1.244929E+07    1*+1.243925E+07    1*+1.243233E+07    1*+1.242756E+07
    1*+1.242427E+07    1*+1.242200E+07    1*+1.242043E+07    1*+1.241935E+07
    1*+1.241861E+07    1*+1.241809E+07    1*+1.241329E+07    1*+1.240766E+07
    1*+1.240640E+07    1*+1.240616E+07    1*+1.240592E+07    1*+1.240466E+07
    1*+1.239903E+07    1*+1.239284E+07    1*+1.238964E+07    1*+1.237335E+07
    1*+1.234397E+07    1*+1.232768E+07    1*+1.232448E+07    1*+1.230819E+07
    1*+1.227881E+07    1*+1.226092E+07    1*+1.225453E+07    1*+1.224100E+07
    1*+1.222031E+07    1*+1.219962E+07    1*+1.013250E+05    1*+1.214929E+07
    1*+1.207349E+07    1*+1.203539E+07    1*+1.203487E+07    1*+1.203413E+07
    1*+1.203305E+07    1*+1.203148E+07    1*+1.202921E+07    1*+1.202592E+07
    1*+1.202115E+07    1*+1.201423E+07    1*+1.200420E+07    1*+1.198965E+07
    1*+1.196855E+07    1*+1.193797E+07    1*+1.189361E+07    1*+1.182931E+07
    1*+1.173606E+07    1*+1.160677E+07    1*+1.142520E+07    1*+1.116194E+07
    1*+1.078026E+07    1*+1.022690E+07    1*+9.424708E+06    1*+8.147242E+06
    1*+1.582775E+07    1*+1.421955E+07    1*+1.366559E+07    1*+1.328360E+07
    1*+1.302019E+07    1*+1.283854E+07    1*+1.270920E+07    1*+1.261593E+07
    1*+1.255160E+07    1*+1.250724E+07    1*+1.247665E+07    1*+1.245555E+07
    1*+1.244100E+07    1*+1.243097E+07    1*+1.242405E+07    1*+1.241927E+07
    1*+1.241598E+07    1*+1.241371E+07    1*+1.241215E+07    1*+1.241107E+07
    1*+1.241032E+07    1*+1.240981E+07    1*+1.240501E+07    1*+1.239937E+07
    1*+1.239811E+07    1*+1.239787E+07    1*+1.239764E+07    1*+1.239638E+07
    1*+1.239074E+07    1*+1.238455E+07    1*+1.238136E+07    1*+1.236507E+07
    1*+1.233568E+07    1*+1.231939E+07    1*+1.231620E+07    1*+1.229991E+07
    1*+1.227052E+07    1*+1.225264E+07    1*+1.224625E+07    1*+1.223271E+07
    1*+1.221203E+07    1*+1.219134E+07    1*+1.013250E+05    1*+1.214100E+07
    1*+1.206521E+07    1*+1.202710E+07    1*+1.202659E+07    1*+1.202584E+07
    1*+1.202476E+07    1*+1.202320E+07    1*+1.202093E+07    1*+1.201764E+07
    1*+1.201287E+07    1*+1.200595E+07    1*+1.199591E+07    1*+1.198136E+07
    1*+1.196027E+07    1*+1.192968E+07    1*+1.188533E+07    1*+1.182102E+07
    1*+1.172778E+07    1*+1.159848E+07    1*+1.141691E+07    1*+1.115366E+07
    1*+1.077198E+07    1*+1.021862E+07    1*+9.416430E+06    1*+8.138968E+06
    1*+1.581567E+07    1*+1.420748E+07    1*+1.365352E+07    1*+1.327153E+07
    1*+1.300812E+07    1*+1.282647E+07    1*+1.269713E+07    1*+1.260386E+07
    1*+1.253953E+07    1*+1.249517E+07    1*+1.246458E+07    1*+1.244348E+07
    1*+1.242893E+07    1*+1.241890E+07    1*+1.241198E+07    1*+1.240721E+07
    1*+1.240391E+07    1*+1.240164E+07    1*+1.240008E+07    1*+1.239900E+07
    1*+1.239825E+07    1*+1.239774E+07    7*+1.280390E+05    2*+1.013250E+05
    2*+1.280390E+05    2*+1.013250E+05    2*+1.280390E+05    8*+1.013250E+05
    1*+1.201503E+07    1*+1.201452E+07    1*+1.201378E+07    1*+1.201270E+07
    1*+1.201113E+07    1*+1.200886E+07    1*+1.200557E+07    1*+1.200080E+07
    1*+1.199388E+07    1*+1.198385E+07    1*+1.196930E+07    1*+1.194820E+07
    1*+1.191762E+07    1*+1.187326E+07    1*+1.180896E+07    1*+1.171571E+07
    1*+1.158642E+07    1*+1.140485E+07    1*+1.114159E+07    1*+1.075991E+07
    1*+1.020656E+07    1*+9.404373E+06    1*+8.126916E+06
    1*+1.579980E+07    1*+1.419162E+07    1*+1.363766E+07    1*+1.325567E+07
    1*+1.299226E+07    1*+1.281062E+07    1*+1.268127E+07    1*+1.258801E+07
    1*+1.252368E+07    1*+1.247932E+07    1*+1.244873E+07    1*+1.242763E+07
    1*+1.241308E+07    1*+1.240305E+07    1*+1.239613E+07    1*+1.239135E+07
    1*+1.238806E+07    1*+1.238579E+07    1*+1.238423E+07    1*+1.238315E+07
    1*+1.238240E+07    1*+1.238189E+07    7*+1.280390E+05    2*+1.013250E+05
    2*+1.280390E+05    2*+1.013250E+05    2*+1.280390E+05    8*+1.013250E+05
    1*+1.199919E+07    1*+1.199867E+07    1*+1.199793E+07    1*+1.199685E+07
    1*+1.199528E+07    1*+1.199301E+07    1*+1.198972E+07    1*+1.198495E+07
    1*+1.197803E+07    1*+1.196800E+07    1*+1.195345E+07    1*+1.193235E+07
    1*+1.190177E+07    1*+1.185742E+07    1*+1.179311E+07    1*+1.169987E+07
    1*+1.157057E+07    1*+1.138900E+07    1*+1.112575E+07    1*+1.074407E+07
    1*+1.019072E+07    1*+9.388537E+06    1*+8.111086E+06
    1*+1.578394E+07    1*+1.417576E+07    1*+1.362180E+07    1*+1.323982E+07
    1*+1.297641E+07    1*+1.279476E+07    1*+1.266542E+07    1*+1.257215E+07
    1*+1.250783E+07    1*+1.246347E+07    1*+1.243288E+07    1*+1.241178E+07
    1*+1.239723E+07    1*+1.238720E+07    1*+1.238028E+07    1*+1.237550E+07
    1*+1.237221E+07    1*+1.236994E+07    1*+1.236838E+07    1*+1.236730E+07
    1*+1.236655E+07    1*+1.236604E+07    7*+1.280390E+05    2*+1.013250E+05
    2*+1.280390E+05    2*+1.013250E+05    2*+1.280390E+05    8*+1.013250E+05
    1*+1.198334E+07    1*+1.198282E+07    1*+1.198208E+07    1*+1.198100E+07
    1*+1.197944E+07    1*+1.197717E+07    1*+1.197387E+07    1*+1.196910E+07
    1*+1.196218E+07    1*+1.195215E+07    1*+1.193760E+07    1*+1.191651E+07
    1*+1.188592E+07    1*+1.184157E+07    1*+1.177726E+07    1*+1.168402E+07
    1*+1.155472E+07    1*+1.137316E+07    1*+1.110991E+07    1*+1.072823E+07
    1*+1.017488E+07    1*+9.372702E+06    1*+8.095257E+06
    1*+1.576026E+07    1*+1.415209E+07    1*+1.359814E+07    1*+1.321616E+07
    1*+1.295275E+07    1*+1.277110E+07    1*+1.264177E+07    1*+1.254850E+07
    1*+1.248418E+07    1*+1.243982E+07    1*+1.240922E+07    1*+1.238813E+07
    1*+1.237358E+07    1*+1.236354E+07    1*+1.235662E+07    1*+1.235185E+07
    1*+1.234856E+07    1*+1.234629E+07    1*+1.234472E+07    1*+1.234364E+07
    1*+1.234290E+07    1*+1.234238E+07    1*+1.233758E+07    1*+1.233195E+07
    1*+1.233069E+07    1*+1.233045E+07    1*+1.233021E+07    1*+1.232895E+07
    1*+1.232332E+07    1*+1.231713E+07    1*+1.231393E+07    1*+1.229765E+07
    1*+1.226826E+07    1*+1.225197E+07    1*+1.224878E+07    1*+1.223249E+07
    1*+1.220310E+07    1*+1.218522E+07    1*+1.217883E+07    1*+1.216529E+07
    1*+1.214461E+07    1*+1.212392E+07    1*+1.013250E+05    1*+1.207358E+07
    1*+1.199779E+07    1*+1.195968E+07    1*+1.195917E+07    1*+1.195843E+07
    1*+1.195735E+07    1*+1.195578E+07    1*+1.195351E+07    1*+1.195022E+07
    1*+1.194545E+07    1*+1.193853E+07    1*+1.192850E+07    1*+1.191395E+07
    1*+1.189285E+07    1*+1.186227E+07    1*+1.181792E+07    1*+1.175361E+07
    1*+1.166037E+07    1*+1.153107E+07    1*+1.134951E+07    1*+1.108626E+07
    1*+1.070459E+07    1*+1.015124E+07    1*+9.349068E+06    1*+8.071633E+06
    1*+1.574289E+07    1*+1.413473E+07    1*+1.358078E+07    1*+1.319880E+07
    1*+1.293540E+07    1*+1.275375E+07    1*+1.262441E+07    1*+1.253114E+07
    1*+1.246682E+07    1*+1.242247E+07    1*+1.239187E+07    1*+1.237077E+07
    1*+1.235622E+07    1*+1.234619E+07    1*+1.233927E+07    1*+1.233450E+07
    1*+1.233121E+07    1*+1.232894E+07    1*+1.232737E+07    1*+1.232629E+07
    1*+1.232555E+07    1*+1.232503E+07    1*+1.232023E+07    1*+1.231460E+07
    1*+1.231334E+07    1*+1.231310E+07    1*+1.231286E+07    1*+1.231160E+07
    1*+1.230597E+07    1*+1.229978E+07    1*+1.229658E+07    1*+1.228029E+07
    1*+1.225091E+07    1*+1.223462E+07    1*+1.223143E+07    1*+1.221514E+07
    1*+1.218575E+07    1*+1.216787E+07    1*+1.216148E+07    1*+1.214794E+07
    1*+1.212726E+07    1*+1.210657E+07    1*+1.209518E+07    1*+1.205623E+07
    1*+1.198044E+07    1*+1.194234E+07    1*+1.194182E+07    1*+1.194108E+07
    1*+1.194000E+07    1*+1.193843E+07    1*+1.193616E+07    1*+1.193287E+07
    1*+1.192810E+07    1*+1.192118E+07    1*+1.191115E+07    1*+1.189660E+07
    1*+1.187551E+07    1*+1.184492E+07    1*+1.180057E+07    1*+1.173626E+07
    1*+1.164302E+07    1*+1.151373E+07    1*+1.133216E+07    1*+1.106891E+07
    1*+1.068724E+07    1*+1.013390E+07    1*+9.331733E+06    1*+8.054305E+06
    1*+1.571404E+07    1*+1.410589E+07    1*+1.355195E+07    1*+1.316998E+07
    1*+1.290657E+07    1*+1.272493E+07    1*+1.259559E+07    1*+1.250232E+07
    1*+1.243800E+07    1*+1.239365E+07    1*+1.236305E+07    1*+1.234196E+07
    1*+1.232741E+07    1*+1.231737E+07    1*+1.231045E+07    1*+1.230568E+07
    1*+1.230239E+07    1*+1.230012E+07    1*+1.229855E+07    1*+1.229747E+07
    1*+1.229673E+07    1*+1.229621E+07    1*+1.229142E+07    1*+1.228578E+07
    1*+1.228452E+07    1*+1.228428E+07    1*+1.228404E+07    1*+1.228279E+07
    1*+1.227715E+07    1*+1.227096E+07    1*+1.226777E+07    1*+1.225148E+07
    1*+1.222209E+07    1*+1.220580E+07    1*+1.220261E+07    1*+1.218632E+07
    1*+1.215694E+07    1*+1.213905E+07    1*+1.213266E+07    1*+1.211912E+07
    1*+1.209844E+07    1*+1.207775E+07    1*+1.013250E+05    1*+1.202742E+07
    1*+1.195163E+07    1*+1.191352E+07    1*+1.191301E+07    1*+1.191226E+07
    1*+1.191118E+07    1*+1.190962E+07    1*+1.190735E+07    1*+1.190406E+07
    1*+1.189929E+07    1*+1.189237E+07    1*+1.188233E+07    1*+1.186779E+07
    1*+1.184669E+07    1*+1.181610E+07    1*+1.177176E+07    1*+1.170745E+07
    1*+1.161421E+07    1*+1.148492E+07    1*+1.130335E+07    1*+1.104011E+07
    1*+1.065844E+07    1*+1.010510E+07    1*+9.302942E+06    1*+8.025524E+06
    1*+1.565959E+07    1*+1.405147E+07    1*+1.349753E+07    1*+1.311557E+07
    1*+1.285217E+07    1*+1.267053E+07    1*+1.254119E+07    1*+1.244793E+07
    1*+1.238361E+07    1*+1.233925E+07    1*+1.230866E+07    1*+1.228756E+07
    1*+1.227301E+07    1*+1.226298E+07    1*+1.225606E+07    1*+1.225129E+07
    1*+1.224799E+07    1*+1.224572E+07    1*+1.224416E+07    1*+1.224308E+07
    1*+1.224233E+07    1*+1.224182E+07    1*+1.223702E+07    1*+1.223138E+07
    1*+1.223013E+07    1*+1.222989E+07    1*+1.222965E+07    1*+1.222839E+07
    1*+1.222275E+07    1*+1.221657E+07    1*+1.221337E+07    1*+1.219708E+07
    1*+1.216770E+07    1*+1.215141E+07    1*+1.214822E+07    1*+1.213193E+07
    1*+1.210254E+07    1*+1.208466E+07    1*+1.207827E+07    1*+1.206473E+07
    1*+1.204405E+07    1*+1.202336E+07    1*+1.013250E+05    1*+1.197303E+07
    1*+1.189724E+07    1*+1.185913E+07    1*+1.185862E+07    1*+1.185788E+07
    1*+1.185680E+07    1*+1.185523E+07    1*+1.185296E+07    1*+1.184967E+07
    1*+1.184490E+07    1*+1.183798E+07    1*+1.182795E+07    1*+1.181340E+07
    1*+1.179230E+07    1*+1.176172E+07    1*+1.171737E+07    1*+1.165307E+07
    1*+1.155983E+07    1*+1.143054E+07    1*+1.124898E+07    1*+1.098573E+07
    1*+1.060407E+07    1*+1.005075E+07    1*+9.248598E+06    1*+7.971202E+06
    1*+1.563128E+07    1*+1.402318E+07    1*+1.346925E+07    1*+1.308728E+07
    1*+1.282389E+07    1*+1.264225E+07    1*+1.251291E+07    1*+1.241965E+07
    1*+1.235533E+07    1*+1.231097E+07    1*+1.228038E+07    1*+1.225928E+07
    1*+1.224473E+07    1*+1.223470E+07    1*+1.222778E+07    1*+1.222301E+07
    1*+1.221972E+07    1*+1.221745E+07    1*+1.221588E+07    1*+1.221480E+07
    1*+1.221406E+07    1*+1.221354E+07    1*+1.220874E+07    1*+1.220311E+07
    1*+1.220185E+07    1*+1.220161E+07    1*+1.220137E+07    1*+1.220011E+07
    1*+1.219448E+07    1*+1.218829E+07    1*+1.218510E+07    1*+1.216881E+07
    1*+1.213942E+07    1*+1.212313E+07    1*+1.211994E+07    1*+1.210365E+07
    1*+1.207427E+07    1*+1.205638E+07    1*+1.204999E+07    1*+1.203646E+07
    1*+1.201577E+07    1*+1.199509E+07    1*+1.198370E+07    1*+1.194475E+07
    1*+1.186896E+07    1*+1.183086E+07    1*+1.183035E+07    1*+1.182960E+07
    1*+1.182852E+07    1*+1.182696E+07    1*+1.182469E+07    1*+1.182140E+07
    1*+1.181662E+07    1*+1.180971E+07    1*+1.179967E+07    1*+1.178513E+07
    1*+1.176403E+07    1*+1.173345E+07    1*+1.168910E+07    1*+1.162479E+07
    1*+1.153155E+07    1*+1.140227E+07    1*+1.122071E+07    1*+1.095747E+07
    1*+1.057581E+07    1*+1.002249E+07    1*+9.220347E+06    1*+7.942962E+06
    1*+1.530130E+07    1*+1.369336E+07    1*+1.313949E+07    1*+1.275757E+07
    1*+1.249420E+07    1*+1.231258E+07    1*+1.218326E+07    1*+1.209000E+07
    1*+1.202569E+07    1*+1.198134E+07    1*+1.195075E+07    1*+1.192965E+07
    1*+1.191510E+07    1*+1.190507E+07    1*+1.189815E+07    1*+1.189338E+07
    1*+1.189009E+07    1*+1.188782E+07    1*+1.188625E+07    1*+1.188517E+07
    1*+1.188443E+07    1*+1.188392E+07    1*+1.187912E+07    1*+1.187348E+07
    1*+1.187222E+07    1*+1.187198E+07    1*+1.187175E+07    1*+1.187049E+07
    1*+1.186485E+07    1*+1.185867E+07    1*+1.185547E+07    1*+1.183918E+07
    1*+1.180980E+07    1*+1.179352E+07    1*+1.179032E+07    1*+1.177404E+07
    1*+1.174466E+07    1*+1.172677E+07    1*+1.172038E+07    1*+1.170685E+07
    1*+1.168617E+07    1*+1.166548E+07    1*+1.013250E+05    1*+1.161515E+07
    1*+1.153937E+07    1*+1.150127E+07    1*+1.150076E+07    1*+1.150001E+07
    1*+1.149894E+07    1*+1.149737E+07    1*+1.149510E+07    1*+1.149181E+07
    1*+1.148704E+07    1*+1.148012E+07    1*+1.147009E+07    1*+1.145554E+07
    1*+1.143445E+07    1*+1.140387E+07    1*+1.135952E+07    1*+1.129523E+07
    1*+1.120200E+07    1*+1.107272E+07    1*+1.089118E+07    1*+1.062797E+07
    1*+1.024635E+07    1*+9.693086E+06    1*+8.891026E+06    1*+7.613772E+06
    1*+1.464358E+07    1*+1.303597E+07    1*+1.248221E+07    1*+1.210036E+07
    1*+1.183705E+07    1*+1.165546E+07    1*+1.152617E+07    1*+1.143293E+07
    1*+1.136863E+07    1*+1.132429E+07    1*+1.129371E+07    1*+1.127262E+07
    1*+1.125807E+07    1*+1.124804E+07    1*+1.124112E+07    1*+1.123635E+07
    1*+1.123306E+07    1*+1.123079E+07    1*+1.122923E+07    1*+1.122815E+07
    1*+1.122741E+07    1*+1.122689E+07    1*+1.122209E+07    1*+1.121646E+07
    1*+1.121520E+07    1*+1.121496E+07    1*+1.121472E+07    1*+1.121347E+07
    1*+1.120783E+07    1*+1.120165E+07    1*+1.119845E+07    1*+1.118217E+07
    1*+1.115279E+07    1*+1.113651E+07    1*+1.113332E+07    1*+1.111703E+07
    1*+1.108766E+07    1*+1.106978E+07    1*+1.106339E+07    1*+1.104986E+07
    1*+1.102918E+07    1*+1.100850E+07    1*+1.013250E+05    1*+1.095818E+07
    1*+1.088242E+07    1*+1.084432E+07    1*+1.084381E+07    1*+1.084307E+07
    1*+1.084199E+07    1*+1.084042E+07    1*+1.083816E+07    1*+1.083486E+07
    1*+1.083009E+07    1*+1.082318E+07    1*+1.081315E+07    1*+1.079861E+07
    1*+1.077752E+07    1*+1.074694E+07    1*+1.070261E+07    1*+1.063832E+07
    1*+1.054511E+07    1*+1.041586E+07    1*+1.023436E+07    1*+9.971201E+06
    1*+9.589659E+06    1*+9.036507E+06    1*+8.234610E+06    1*+6.957616E+06
    1*+1.398600E+07    1*+1.237871E+07    1*+1.182506E+07    1*+1.144329E+07
    1*+1.118003E+07    1*+1.099849E+07    1*+1.086922E+07    1*+1.077600E+07
    1*+1.071171E+07    1*+1.066738E+07    1*+1.063680E+07    1*+1.061572E+07
    1*+1.060117E+07    1*+1.059115E+07    1*+1.058423E+07    1*+1.057946E+07
    1*+1.057617E+07    1*+1.057390E+07    1*+1.057234E+07    1*+1.057126E+07
    1*+1.057051E+07    1*+1.057000E+07    1*+1.056520E+07    1*+1.055957E+07
    1*+1.055831E+07    1*+1.055807E+07    1*+1.055784E+07    1*+1.055658E+07
    1*+1.055094E+07    1*+1.054476E+07    1*+1.054157E+07    1*+1.052529E+07
    1*+1.049592E+07    1*+1.047964E+07    1*+1.047644E+07    1*+1.046016E+07
    1*+1.043080E+07    1*+1.041292E+07    1*+1.040653E+07    1*+1.039301E+07
    1*+1.037233E+07    1*+1.035166E+07    1*+1.013250E+05    1*+1.030135E+07
    1*+1.022560E+07    1*+1.018751E+07    1*+1.018700E+07    1*+1.018625E+07
    1*+1.018518E+07    1*+1.018361E+07    1*+1.018134E+07    1*+1.017805E+07
    1*+1.017328E+07    1*+1.016637E+07    1*+1.015634E+07    1*+1.014180E+07
    1*+1.012072E+07    1*+1.009015E+07    1*+1.004582E+07    1*+9.981550E+06
    1*+9.888359E+06    1*+9.759136E+06    1*+9.577671E+06    1*+9.314565E+06
    1*+8.933101E+06    1*+8.380062E+06    1*+7.578328E+06    1*+6.301593E+06
    1*+1.332854E+07    1*+1.172159E+07    1*+1.116805E+07    1*+1.078636E+07
    1*+1.052315E+07    1*+1.034164E+07    1*+1.021240E+07    1*+1.011920E+07
    1*+1.005493E+07    1*+1.001060E+07    1*+9.980033E+06    1*+9.958951E+06
    1*+9.944411E+06    1*+9.934384E+06    1*+9.927469E+06    1*+9.922701E+06
    1*+9.919411E+06    1*+9.917143E+06    1*+9.915579E+06    1*+9.914500E+06
    1*+9.913756E+06    1*+9.913243E+06    1*+9.908447E+06    1*+9.902813E+06
    1*+9.901557E+06    1*+9.901318E+06    1*+9.901080E+06    1*+9.899823E+06
    1*+9.894190E+06    1*+9.888007E+06    1*+9.884815E+06    1*+9.868538E+06
    1*+9.839175E+06    1*+9.822898E+06    1*+9.819706E+06    1*+9.803429E+06
    1*+9.774067E+06    1*+9.756194E+06    1*+9.749811E+06    1*+9.736284E+06
    1*+9.715613E+06    1*+9.694943E+06    1*+1.013250E+05    1*+9.644645E+06
    1*+9.568909E+06    1*+9.530832E+06    1*+9.530319E+06    1*+9.529575E+06
    1*+9.528497E+06    1*+9.526933E+06    1*+9.524665E+06    1*+9.521376E+06
    1*+9.516607E+06    1*+9.509694E+06    1*+9.499668E+06    1*+9.485131E+06
    1*+9.464052E+06    1*+9.433487E+06    1*+9.389171E+06    1*+9.324913E+06
    1*+9.231740E+06    1*+9.102544E+06    1*+8.921116E+06    1*+8.658063E+06
    1*+8.276677E+06    1*+7.723750E+06    1*+6.922179E+06    1*+5.645704E+06
    1*+1.267122E+07    1*+1.106459E+07    1*+1.051117E+07    1*+1.012956E+07
    1*+9.866403E+06    1*+9.684930E+06    1*+9.555714E+06    1*+9.462535E+06
    1*+9.398275E+06    1*+9.353959E+06    1*+9.323396E+06    1*+9.302317E+06
    1*+9.287781E+06    1*+9.277756E+06    1*+9.270843E+06    1*+9.266075E+06
    1*+9.262786E+06    1*+9.260519E+06    1*+9.258954E+06    1*+9.257876E+06
    1*+9.257133E+06    1*+9.256620E+06    1*+9.251824E+06    1*+9.246192E+06
    1*+9.244935E+06    1*+9.244697E+06    1*+9.244459E+06    1*+9.243202E+06
    1*+9.237570E+06    1*+9.231388E+06    1*+9.228197E+06    1*+9.211923E+06
    1*+9.182566E+06    1*+9.166292E+06    1*+9.163101E+06    1*+9.146828E+06
    1*+9.117471E+06    1*+9.099602E+06    1*+9.093220E+06    1*+9.079696E+06
    1*+9.059030E+06    1*+9.038364E+06    1*+1.013250E+05    1*+8.988076E+06
    1*+8.912355E+06    1*+8.874286E+06    1*+8.873773E+06    1*+8.873030E+06
    1*+8.871951E+06    1*+8.870387E+06    1*+8.868120E+06    1*+8.864832E+06
    1*+8.860064E+06    1*+8.853152E+06    1*+8.843129E+06    1*+8.828594E+06
    1*+8.807519E+06    1*+8.776961E+06    1*+8.732654E+06    1*+8.668409E+06
    1*+8.575255E+06    1*+8.446085E+06    1*+8.264694E+06    1*+8.001695E+06
    1*+7.620386E+06    1*+7.067572E+06    1*+6.266164E+06    1*+4.989949E+06
    1*+1.201404E+07    1*+1.040774E+07    1*+9.854426E+06    1*+9.472890E+06
    1*+9.209788E+06    1*+9.028352E+06    1*+8.899163E+06    1*+8.806003E+06
    1*+8.741756E+06    1*+8.697449E+06    1*+8.666892E+06    1*+8.645818E+06
    1*+8.631285E+06    1*+8.621262E+06    1*+8.614350E+06    1*+8.609583E+06
    1*+8.606295E+06    1*+8.604028E+06    1*+8.602464E+06    1*+8.601386E+06
    1*+8.600642E+06    1*+8.600129E+06    1*+8.595335E+06    1*+8.589704E+06
    1*+8.588448E+06    1*+8.588209E+06    1*+8.587971E+06    1*+8.586715E+06
    1*+8.581083E+06    1*+8.574903E+06    1*+8.571713E+06    1*+8.555442E+06
    1*+8.526091E+06    1*+8.509821E+06    1*+8.506630E+06    1*+8.490360E+06
    1*+8.461010E+06    1*+8.443144E+06    1*+8.436763E+06    1*+8.423242E+06
    1*+8.402580E+06    1*+8.381918E+06    1*+1.013250E+05    1*+8.331641E+06
    1*+8.255935E+06    1*+8.217874E+06    1*+8.217361E+06    1*+8.216618E+06
    1*+8.215540E+06    1*+8.213976E+06    1*+8.211709E+06    1*+8.208421E+06
    1*+8.203655E+06    1*+8.196744E+06    1*+8.186723E+06    1*+8.172191E+06
    1*+8.151120E+06    1*+8.120569E+06    1*+8.076270E+06    1*+8.012038E+06
    1*+7.918904E+06    1*+7.789760E+06    1*+7.608406E+06    1*+7.345460E+06
    1*+6.964229E+06    1*+6.411527E+06    1*+5.610282E+06    1*+4.334326E+06
    1*+1.135699E+07    1*+9.751011E+06    1*+9.197814E+06    1*+8.816356E+06
    1*+8.553308E+06    1*+8.371909E+06    1*+8.242746E+06    1*+8.149604E+06
    1*+8.085371E+06    1*+8.041073E+06    1*+8.010522E+06    1*+7.989452E+06
    1*+7.974922E+06    1*+7.964901E+06    1*+7.957990E+06    1*+7.953224E+06
    1*+7.949937E+06    1*+7.947670E+06    1*+7.946107E+06    1*+7.945029E+06
    1*+7.944286E+06    1*+7.943773E+06    1*+7.938980E+06    1*+7.933349E+06
    1*+7.932093E+06    1*+7.931855E+06    1*+7.931617E+06    1*+7.930361E+06
    1*+7.924731E+06    1*+7.918552E+06    1*+7.915362E+06    1*+7.899095E+06
    1*+7.869750E+06    1*+7.853483E+06    1*+7.850293E+06    1*+7.834026E+06
    1*+7.804681E+06    1*+7.786820E+06    1*+7.780440E+06    1*+7.766921E+06
    1*+7.746264E+06    1*+7.725606E+06    1*+1.013250E+05    1*+7.675339E+06
    1*+7.599649E+06    1*+7.561595E+06    1*+7.561082E+06    1*+7.560339E+06
    1*+7.559261E+06    1*+7.557698E+06    1*+7.555431E+06    1*+7.552145E+06
    1*+7.547379E+06    1*+7.540470E+06    1*+7.530450E+06    1*+7.515922E+06
    1*+7.494855E+06    1*+7.464310E+06    1*+7.420020E+06    1*+7.355801E+06
    1*+7.262686E+06    1*+7.133568E+06    1*+6.952251E+06    1*+6.689359E+06
    1*+6.308205E+06    1*+5.755615E+06    1*+4.954534E+06    1*+3.678837E+06
   42*+2.283128E+06    1*+1.013250E+05   25*+2.283128E+06
   42*+9.333000E+05    1*+1.013250E+05   25*+9.333000E+05
   42*+1.827015E+06    1*+1.013250E+05   25*+1.827015E+06
   42*+9.631000E+05    1*+1.013250E+05   25*+9.631000E+05
   42*+1.473304E+06    1*+1.013250E+05   25*+1.473304E+06
   42*+7.355477E+05    1*+1.013250E+05   25*+7.355477E+05
   68*+1.013250E+05
   68*+1.013250E+05
   68*+1.013250E+05
  GRID BLOCK BRINE SATURATION INITIAL CONDITIONS
   68*+1.000000E+00
   68*+1.000000E+00
   68*+1.000000E+00
   68*+1.000000E+00
   68*+1.000000E+00
   68*+1.000000E+00
   68*+1.000000E+00
   42*+1.000000E+00    1*+9.999999E-01   25*+1.000000E+00
   42*+1.000000E+00    1*+9.999999E-01   25*+1.000000E+00
   22*+1.000000E+00    7*+1.500000E-02    2*+5.664186E-01    2*+1.500000E-02
    2*+5.664186E-01    2*+1.500000E-02    2*+5.664186E-01    3*+0.000000E+00
    1*+9.999999E-01    2*+0.000000E+00   23*+1.000000E+00
   22*+1.000000E+00    7*+1.500000E-02    2*+5.664186E-01    2*+1.500000E-02
    2*+5.664186E-01    2*+1.500000E-02    2*+5.664186E-01    3*+0.000000E+00
    1*+9.999999E-01    2*+0.000000E+00   23*+1.000000E+00
   22*+1.000000E+00    7*+1.500000E-02    2*+5.664186E-01    2*+1.500000E-02
    2*+5.664186E-01    2*+1.500000E-02    2*+5.664186E-01    3*+0.000000E+00
    1*+9.999999E-01    2*+0.000000E+00   23*+1.000000E+00
   42*+1.000000E+00    1*+9.999999E-01   25*+1.000000E+00
   68*+1.000000E+00
   42*+1.000000E+00    1*+9.999999E-01   25*+1.000000E+00
   42*+1.000000E+00    1*+9.999999E-01   25*+1.000000E+00
   68*+1.000000E+00
   42*+1.000000E+00    1*+9.999999E-01   25*+1.000000E+00
   42*+1.000000E+00    1*+9.999999E-01   25*+1.000000E+00
   42*+1.000000E+00    1*+9.999999E-01   25*+1.000000E+00
   42*+1.000000E+00    1*+9.999999E-01   25*+1.000000E+00
   42*+1.000000E+00    1*+9.999999E-01   25*+1.000000E+00
   42*+1.000000E+00    1*+9.999999E-01   25*+1.000000E+00
   42*+1.000000E+00    1*+9.999999E-01   25*+1.000000E+00
   42*+1.000000E+00    1*+9.999999E-01   25*+1.000000E+00
   42*+1.000000E+00    1*+9.999999E-01   25*+1.000000E+00
   42*+1.000000E+00    1*+9.999999E-01   25*+1.000000E+00
   42*+1.000000E+00    1*+9.999999E-01   25*+1.000000E+00
   42*+1.000000E+00    1*+9.999999E-01   25*+1.000000E+00
   42*+1.000000E+00    1*+9.999999E-01   25*+1.000000E+00
   42*+8.360000E-02    1*+9.999999E-01   25*+8.360000E-02
   42*+8.363000E-02    1*+9.999999E-01   25*+8.363000E-02
   42*+8.363000E-02    1*+9.999999E-01   25*+8.363000E-02
  GRID BLOCK FE CONCENTRATION INITIAL CONDITIONS
