  ID 21
  POROSITY 8.4800000d-01
  TORTUOSITY 1.0000000d+00
  ROCK_DENSITY 2.6500000d+03
  SOIL_COMPRESSIBILITY_FUNCTION BRAGFLO
  BULK_COMPRESSIBILITY 0.0000000d+00
  EXTERNAL_FILE ../material_properties/soil_reference_pressure.txt
  PERMEABILITY
    PERM_X_LOG10 -1.2619800d+01
    PERM_Y_LOG10 -1.2619800d+01
    PERM_Z_LOG10 -1.2619800d+01
  /
  CREEP_CLOSURE_TABLE creep001

