  ID 25
  POROSITY 3.2000000d-01
  TORTUOSITY 1.0000000d+00
  ROCK_DENSITY 2.6500000d+03
  SOIL_COMPRESSIBILITY_FUNCTION BRAGFLO
  BULK_COMPRESSIBILITY 3.8000000d-10 #bulk
  EXTERNAL_FILE ../material_properties/soil_reference_pressure.txt
  PERMEABILITY
    PERM_X_LOG10 -17.8022 #-18.d0 #LHS and BRAGFLO, sampled or not?
    PERM_Y_LOG10 -17.8022 #-18.d0 #LHS and BRAGFLO, sampled or not?
    PERM_Z_LOG10 -17.8022 #-18.d0 #LHS and BRAGFLO, sampled or not?
  /

