  ID 19
  POROSITY 1.4300000d-01
  TORTUOSITY 1.0000000d+00
  ROCK_DENSITY 2.6500000d+03
  SOIL_COMPRESSIBILITY_FUNCTION BRAGFLO
  BULK_COMPRESSIBILITY 1.0000000d-08 #bulk
  EXTERNAL_FILE ../material_properties/soil_reference_pressure.txt
  PERMEABILITY
    PERM_X_LOG10 -1.6300000d+01
    PERM_Y_LOG10 -1.6300000d+01
    PERM_Z_LOG10 -1.6300000d+01
  /

